{
    "$schema": "https://json-schema.org/draft/2019-09/schema",
    "type": "object",
    "required": [
        "programmedetails"
    ],
    "properties": {
        "programmedetails": {
            "type": "object",
            "required": [
                "programme"
            ],
            "properties": {
                "programme": {
                    "type": "array",
                    "items": {
                        "type": "object",
                        "required": [
                            "programmename",
                            "programmeid",
                            "synopsis",
                            "synopsis90",
                            "programmelanguage",
                            "programmeimage",
                            "programmegenre",
                            "programmesubgenre",
                            "parentalrating",
                            "releaseinfo",
                            "productionyear",
                            "awards",
                            "keywords",
                            "castdetails"
                        ],
                        "properties": {
                            "programmename": {
                                "type": "array",
                                "items": {
                                    "type": "object",
                                    "required": [
                                        "lang",
                                        "value"
                                    ],
                                    "properties": {
                                        "lang": {
                                            "type": "string"
                                        },
                                        "value": {
                                            "type": "string"
                                        }
                                    }
                                }
                            },
                            "programmeid": {
                                "type": "string"
                            },
                            "synopsis": {
                                "type": "array",
                                "items": {
                                    "type": "object",
                                    "required": [
                                        "lang",
                                        "value"
                                    ],
                                    "properties": {
                                        "lang": {
                                            "type": "string"
                                        },
                                        "value": {
                                            "type": "string"
                                        }
                                    }
                                }
                            },
                            "synopsis90": {
                                "type": "array",
                                "items": {
                                    "type": "object",
                                    "required": [
                                        "lang",
                                        "value"
                                    ],
                                    "properties": {
                                        "lang": {
                                            "type": "string"
                                        },
                                        "value": {
                                            "type": "string"
                                        }
                                    }
                                }
                            },
                            "programmelanguage": {
                                "type": "string"
                            },
                            "programmeimage": {
                                "type": "string"
                            },
                            "programmegenre": {
                                "type": "array",
                                "items": {
                                    "type": "object",
                                    "required": [
                                        "lang",
                                        "value"
                                    ],
                                    "properties": {
                                        "lang": {
                                            "type": "string"
                                        },
                                        "value": {
                                            "type": "string"
                                        }
                                    }
                                }
                            },
                            "programmesubgenre": {
                                "type": "array",
                                "items": {
                                    "type": "object",
                                    "required": [
                                        "lang",
                                        "value"
                                    ],
                                    "properties": {
                                        "lang": {
                                            "type": "string"
                                        },
                                        "value": {
                                            "type": "string"
                                        }
                                    }
                                }
                            },
                            "parentalrating": {
                                "type": "string"
                            },
                            "releaseinfo": {
                                "type": "object",
                                "required": [
                                    "countryname",
                                    "releasedate"
                                ],
                                "properties": {
                                    "countryname": {
                                         "type": ["null", "string"],
                    					 "default": ""
                                    },
                                    "releasedate": {
                                        "type": ["null", "string"],
                    					 "default": ""
                                    }
                                }
                            },
                            "productionyear": {
                                "type": "integer"
                            },
                            "awards": {
                                "type": "null"
                            },
                            "keywords": {
                                "type": "string"
                            },
                            "castdetails": {
                                "type": "array",
                                "items": {
                                    "type": "object",
                                    "required": [
                                        "castname",
                                        "rolename",
                                        "characterrole"
                                    ],
                                    "properties": {
                                        "castname": {
                                            "type": "array",
                                            "items": {
                                                "type": "object",
                                                "required": [
                                                    "lang",
                                                    "value"
                                                ],
                                                "properties": {
                                                    "lang": {
                                                        "type": "string"
                                                    },
                                                    "value": {
                                                        "type": "string"
                                                    }
                                                }
                                            }
                                        },
                                        "rolename": {
                                            "type": "string"
                                        },
                                        "characterrole": {
                                         "type": ["null", "string"],
                    					 "default": ""
                                            
                                        }
                                    }
                                }
                            }
                        }
                    }
                }
            }
        }
    }
}